{
  "customers": [
    {
      "id": 350,
      "firstName": "minhtam",
      "lastName": "Le",
      "Email": "leminhtam@gmail.com",
      "Phone": "+84347096042",
      "Address": "17 Mai Chi Tho",
      "City": "Ho Chi Minh",
      "State": "District 02"
    },
    {
      "id": 461,
      "firstName": "Quan Quan",
      "lastName": "Tâm",
      "Email": "Hongquan2309@gmail.com",
      "Phone": "+84347096042",
      "Address": "Ho Chi Minh",
      "City": "9",
      "State": "Hồ Chí Minh"
    },
    {
      "id": 961,
      "firstName": "nhutinh",
      "lastName": "Vo",
      "Email": "nhutinh1991@gmail.com",
      "Phone": "09304053",
      "Address": "Quy nhon",
      "City": "Ho Chi Minh",
      "State": "District 02"
    },
    {
      "id": 396,
      "firstName": "Khang",
      "lastName": "Nguyen",
      "Email": "khangnguyen@gmail.com",
      "Phone": "0913425678",
      "Address": "Ho Chi Minh",
      "City": "Ho Chi Minh",
      "State": "Dis 7"
    },
    {
      "id": 135,
      "firstName": "LeHuyen",
      "lastName": "Van",
      "Email": "lehuyen@gmail.com",
      "Phone": "0123456",
      "Address": "Ho Chi Minh",
      "City": "8",
      "State": "Hồ Chí Minh"
    },
    {
      "id": 614,
      "firstName": "MinhAn",
      "lastName": "Nguyen",
      "Email": "minhanh@gmail.com",
      "Phone": "+84347096042",
      "Address": "17 Mai Chi Tho",
      "City": "Ho Chi Minh",
      "State": "District 02"
    },
    {
      "id": 525,
      "firstName": "nhuhoa",
      "lastName": "ha",
      "Email": "nhuhoa259@gmail.com",
      "Phone": "034577334",
      "Address": "Ho Chi Minh",
      "City": "Dis7",
      "State": "Hồ Chí Minh"
    },
    {
      "id": 772,
      "firstName": "HongQuan",
      "lastName": "LeNguyen",
      "Email": "Hongquan2309@gmail.com",
      "Phone": "+84347096042",
      "Address": "17 Mai Chi Tho",
      "City": "Ho Chi Minh",
      "State": "District 02"
    },
    {
      "id": 924,
      "firstName": "Minhtoan ",
      "lastName": "Nguyen",
      "Email": "minhanh@gmail.com",
      "Phone": "+84347096042",
      "Address": "17 Mai Chi Tho",
      "City": "Ho Chi Minh",
      "State": "District 02"
    },
    {
      "id": 673,
      "firstName": "quanghuy",
      "lastName": "Nguyen",
      "Email": "huynguyen@gmail.com",
      "Phone": "0913425678",
      "Address": "Ho Chi Minh",
      "City": "Ho Chi Minh",
      "State": "Dis 7"
    },
    {
      "id": 809,
      "firstName": "vanQuy",
      "lastName": "Nguyen",
      "Email": "vanquy@gmail.com",
      "Phone": "0913425678",
      "Address": "Ho Chi Minh",
      "City": "8",
      "State": "Hồ Chí Minh"
    },
    {
      "id": 406,
      "firstName": "Duong",
      "lastName": "Le",
      "Email": "khangnguyen@gmail.com",
      "Phone": "Duong khang",
      "Address": "Ho Chi Minh",
      "City": "9",
      "State": "Hồ Chí Minh"
    },
    {
      "id": 509,
      "firstName": "MinhAnh",
      "lastName": "Nguyen",
      "Email": "minhanh@gmail.com",
      "Phone": "+84347096042",
      "Address": "17 Mai Chi Tho",
      "City": "Ho Chi Minh",
      "State": "District 02"
    },
    {
      "id": 619,
      "firstName": "MinhVuong",
      "lastName": "Tâm",
      "Email": "Hongquan2309@gmail.com",
      "Phone": "+84347096042",
      "Address": "Ho Chi Minh",
      "City": "9",
      "State": "Hồ Chí Minh"
    },
    {
      "id": 23,
      "firstName": "hongthuy",
      "lastName": "Le",
      "Email": "leminhtam@gmail.com",
      "Phone": "+84347096042",
      "Address": "17 Mai Chi Tho",
      "City": "Ho Chi Minh",
      "State": "District 02"
    },
    {
      "id": 83,
      "firstName": "vantan",
      "lastName": "nguyen",
      "Email": "vantan@gmail.com",
      "Phone": "0913425678",
      "Address": "Ho Chi Minh",
      "City": "Ho Chi Minh",
      "State": "Dis 7"
    },
    {
      "id": 824,
      "firstName": "minhtan",
      "lastName": "Le",
      "Email": "leminhtam@gmail.com",
      "Phone": "+84347096042",
      "Address": "17 Mai Chi Tho",
      "City": "Ho Chi Minh",
      "State": "District 02"
    },
    {
      "id": 67,
      "firstName": "hoanganh",
      "lastName": "LeNguyen",
      "Email": "Hongquan2309@gmail.com",
      "Phone": "+84347096042",
      "Address": "17 Mai Chi Tho",
      "City": "Ho Chi Minh",
      "State": "District 02"
    }
  ]
}